{
    "v1.0.0": "messages/1.0.0.txt",
    "v1.0.1": "messages/1.0.1.txt",
    "v1.0.1": "messages/1.0.1.txt",
    "v1.0.2": "messages/1.0.2.txt",
    "v1.0.3": "messages/1.0.3.txt",
    "v1.0.4": "messages/1.0.4.txt",
    "v1.0.5": "messages/1.0.5.txt"
}